{
  "type": "service_account",
  "project_id": "localteams-a96f4",
  "private_key_id": "93b985ff766562b0c6d0f00cf135a57627b261b4",
  "private_key": "-----BEGIN PRIVATE KEY-----\nMIIEvQIBADANBgkqhkiG9w0BAQEFAASCBKcwggSjAgEAAoIBAQC3+1fNqOUiSqjl\nPxXE1SXluuu1nEVlqVc3B3VvEA46ZJCV4fNdM8mRLo4FyKEyF9mdkEmls735fVUo\nZwBV+z0arhqiTPpnNQKGVKHA2bd8UiJeuyZ0NDAS9TRirgIPbzhpc8oo5eKeLipl\nm1ruXBMFNva6P42vsuc4QJfYVnDQ1swP92/OWl0D7/iQ7Dh1soN66zxo7or+jQMW\nbB94bGH9X7+KHTt8tlh+nQsaQYB52FdYCaSzrdKeEu5u9ZsaWASHDtzRdc6eom0e\n1fnwy7vSqDmhhgKgTblgsxwO8nNXRX8RFt2cBfFR2rCG2x/FR7CjfuSNWbhOggeR\n7GsN5biDAgMBAAECggEAB/sfKLyo8jOnn4h80uccbqzWCzC0A/cGqroVvxyN+XN9\nMnIikIpko7DYzw4iebAtB0VjbZ8VF2guOLo9aEaTRxHwPtZHBRGK+SM426aRkEnU\nHSSbVqVFMgee3w78VXc2KFMyLy7+4Np1ZV33quk4BSYau/6WfjkIdbS7nPbJQw3c\ndKnVzAuz5wAqDnU9S7/3E4z1zpaH9j6YpBNxsY4nRpfPJdwLBFvRWmFFNuAebf7R\nWJW9DU8RbggXtInS2XIULoNBxNtYgW9NJJ/u4VtTgUrqdxtV5cwxat5n0EJv33jK\nnQ5KrKLd8FUqdihXWDHg871r//xd+hQv/sGEm4YUFQKBgQD36MeReQSkjtJw0O3Y\nqsxFrrypz9QGdScVlK6b3bu16GZdt27fJ1LPOPtidLHTm7HhSQvFGwpmQCJq5qy5\n2YnmRmSjgq2Q7ZEWj2nPPlT4Uq+mCsX6CvR/sRkJIYiLvSq1z6LA0Vvfa0GOjiRK\n6277kv7wq+f+u0R+WHdp9OScBwKBgQC9/HcWTxOXZeKC9Bx47gbZFXvvyxuPx9+U\nfeE+y3cC/PtImcxw/txznEqjYO8XnAAlrHwEsRak2agwu/uE/NNMHgwJHzAcYX03\nDNOoPjGA5GuTpQwPMkSudA0RbuSb35ZruPFjF+2f+NsKZrtkPHyiAjTWZE1oIbHB\nbq4/no+YpQKBgHF3jcA7j7Bx3kfcmMBOjGhobdmbUgQSouzxvGmCt2OvFwtV5d0l\ndnV6MzUBDFM6M9RVRpnUopHiUN507iGyO7e2CGH+ccqfsYSN53P/p4xw7Awnai3j\nzbyUJk1Tl9e9oUrN2kQ+jrpXsQ26aUoRMB7dTOqDBBBHTjY175IDkI8JAoGBAL2I\nsbGC4DOpBCnKqOEH7bMCWOtoAC4Xo3h7gIvp5egIRBQwwyFzULDRmjCV0tEF46uy\nAOOZW9LIBZ/g2dLZe16zlyQ+hfu6UnXqCPoOWcqRlrTr8jTy3EwCIMtkixLqIyGC\nluZaB8kRNkyRIp+kLF5fvyCnXgXln3UvGw0C/ZS1AoGAfWGoOo3CAXYcpD5GXCg7\nizb4dinrdmBIqWLQp2ty83n4ydG9ttGLlHlp4Pu1VKjYPVPo9wp5VYniRbzxp0Z+\nKZr9LRnYNT8nlJKNcDhe7Qz4t/1l8JfpPgEFS7Dmg53mVBbGbgi3ztMQNYURdsdx\nkGvhPO/BOiN+nKFIiNIcyiY=\n-----END PRIVATE KEY-----\n",
  "client_email": "firebase-adminsdk-zaebj@localteams-a96f4.iam.gserviceaccount.com",
  "client_id": "103519524238967413073",
  "auth_uri": "https://accounts.google.com/o/oauth2/auth",
  "token_uri": "https://accounts.google.com/o/oauth2/token",
  "auth_provider_x509_cert_url": "https://www.googleapis.com/oauth2/v1/certs",
  "client_x509_cert_url": "https://www.googleapis.com/robot/v1/metadata/x509/firebase-adminsdk-zaebj%40localteams-a96f4.iam.gserviceaccount.com"
}
